…
brfss <- brfss_smart2010 %>% 
  janitor::clean_names() %>%
  filter(topic == "Overall Health") %>%
  select(-c(class, topic, question, sample_size, confidence_limit_low:geo_location)) %>% 
  spread(key = response, value = data_value) %>% 
  janitor::clean_names() %>% 
  rename(state = locationabbr, county = locationdesc) %>% 
  separate(county, into = c("remove", "county"), sep = "- ") %>%
  select(year, state, county, poor, fair, good, very_good, excellent)
  
brfss
```

    ## # A tibble: 2,125 x 8
    ##     year state county                  poor  fair  good very_good excellent
    ##    <int> <chr> <chr>                  <dbl> <dbl> <dbl>     <dbl>     <dbl>
    ##  1  2002 AK    Anchorage Municipality   5.9   8.6  23.8      33.7      27.9
    ##  2  2002 AL    Jefferson County         5.9  12.1  32.7      30.9      18.5
    ##  3  2002 AR    Pulaski County           4.2  12.5  29.9      29.3      24.1
    ##  4  2002 AZ    Maricopa County          4.6  10.3  26.9      36.6      21.6
    ##  5  2002 AZ    Pima County              3.9   7.5  31.9      30.1      26.6
    ##  6  2002 CA    Los Angeles County       4.5  14.3  28.7      29.8      22.7
    ##  7  2002 CO    Adams County             4.2  14.4  29        31.2      21.2
    ##  8  2002 CO    Arapahoe County          2.1   8    29.3      35.2      25.5
    ##  9  2002 CO    Denver County            3    11.1  36.6      27.1      22.2
    ## 10  2002 CO    Jefferson County         2.4  11.4  26.3      36.6      23.4
    ## # ... with 2,115 more rows
…
The five-panel plot above displays the average proportion in each response category in the BRFSS "Overall Health" topic, averaged across county-level regions in each state, with a loess smoothed conditional mean curve and 95% confidence level. We see the distribution of state-level averages over time from 2002 to 2008. "Very good" makes up the highest proportion of responses, followed by "good", "excellent", "fair", and lastly "poor". For the most part, the trend of responses remained consistent over time. The proportion of "very good" responses increases slightly, and "excellent" responses decrease slightly over this period.

Problem 2: Instacart
====================

First, I will load the Instacart data.

``` r
data("instacart")

instacart
```

    ## # A tibble: 1,384,617 x 15
    ##    order_id product_id add_to_cart_ord~ reordered user_id eval_set
    ##       <int>      <int>            <int>     <int>   <int> <chr>   
    ##  1        1      49302                1         1  112108 train   
    ##  2        1      11109                2         1  112108 train   
    ##  3        1      10246                3         0  112108 train   
    ##  4        1      49683                4         0  112108 train   
    ##  5        1      43633                5         1  112108 train   
    ##  6        1      13176                6         0  112108 train   
    ##  7        1      47209                7         0  112108 train   
    ##  8        1      22035                8         1  112108 train   
    ##  9       36      39612                1         0   79431 train   
    ## 10       36      19660                2         1   79431 train   
    ## # ... with 1,384,607 more rows, and 9 more variables: order_number <int>,
    ## #   order_dow <int>, order_hour_of_day <int>,
    ## #   days_since_prior_order <int>, product_name <chr>, aisle_id <int>,
    ## #   department_id <int>, aisle <chr>, department <chr>
…
    ## # A tibble: 1 x 1
    ##   n_distinct
    ##        <int>
    ## 1        134

``` r
instacart %>%
  group_by(aisle) %>% 
  summarize(n = n()) %>% 
  arrange(desc(n))
```

    ## # A tibble: 134 x 2
    ##    aisle                              n
    ##    <chr>                          <int>
    ##  1 fresh vegetables              150609
    ##  2 fresh fruits                  150473
    ##  3 packaged vegetables fruits     78493
    ##  4 yogurt                         55240
    ##  5 packaged cheese                41699
    ##  6 water seltzer sparkling water  36617
    ##  7 milk                           32644
    ##  8 chips pretzels                 31269
    ##  9 soy lactosefree                26240
    ## 10 bread                          23635
    ## # ... with 124 more rows
…
The table above displays the mean hour of the day at which Pink Lady Apples and Coffee Ice Cream were ordered on each day of the week. The mean hour values are based on a 24 hour clock, and represent fraction of an hour, rather than hours and minutes. From the `order_dow` variable, day `0` was assumed to represent Sunday. We see that every day except for Friday, the ice cream is ordered later in the day than the apples. Lunchtime and late afternoon are the most popular order times, except for the Friday morning coffee ice cream.

Problem 3: NY NOAA
==================

I will load the NY NOAA data from the p8105.datasets package.

``` r
data("ny_noaa")
ny_noaa
```

    ## # A tibble: 2,595,176 x 7
    ##    id          date        prcp  snow  snwd tmax  tmin 
    ##    <chr>       <date>     <int> <int> <int> <chr> <chr>
    ##  1 US1NYAB0001 2007-11-01    NA    NA    NA <NA>  <NA> 
    ##  2 US1NYAB0001 2007-11-02    NA    NA    NA <NA>  <NA> 
    ##  3 US1NYAB0001 2007-11-03    NA    NA    NA <NA>  <NA> 
    ##  4 US1NYAB0001 2007-11-04    NA    NA    NA <NA>  <NA> 
    ##  5 US1NYAB0001 2007-11-05    NA    NA    NA <NA>  <NA> 
    ##  6 US1NYAB0001 2007-11-06    NA    NA    NA <NA>  <NA> 
    ##  7 US1NYAB0001 2007-11-07    NA    NA    NA <NA>  <NA> 
    ##  8 US1NYAB0001 2007-11-08    NA    NA    NA <NA>  <NA> 
    ##  9 US1NYAB0001 2007-11-09    NA    NA    NA <NA>  <NA> 
    ## 10 US1NYAB0001 2007-11-10    NA    NA    NA <NA>  <NA> 
    ## # ... with 2,595,166 more rows
…
I will now clean the data and create separate variables for year, month, and day. I will also convert units of precipitation to millimeters and temperatures to degrees Celsius. To execute the temperature unit conversions, it was necessary to change the class from character to numeric.

``` r
ny_noaa <- ny_noaa %>%
  separate(., "date", c("year", "month", "day"), sep = "-") %>%
  mutate(tmax = as.numeric(tmax),
            tmin = as.numeric(tmin),
            prcp = prcp / 10, 
            tmax = tmax / 10,
            tmin = tmin / 10)

ny_noaa
```

    ## # A tibble: 2,595,176 x 9
    ##    id          year  month day    prcp  snow  snwd  tmax  tmin
    ##    <chr>       <chr> <chr> <chr> <dbl> <int> <int> <dbl> <dbl>
    ##  1 US1NYAB0001 2007  11    01       NA    NA    NA    NA    NA
    ##  2 US1NYAB0001 2007  11    02       NA    NA    NA    NA    NA
    ##  3 US1NYAB0001 2007  11    03       NA    NA    NA    NA    NA
    ##  4 US1NYAB0001 2007  11    04       NA    NA    NA    NA    NA
    ##  5 US1NYAB0001 2007  11    05       NA    NA    NA    NA    NA
    ##  6 US1NYAB0001 2007  11    06       NA    NA    NA    NA    NA
    ##  7 US1NYAB0001 2007  11    07       NA    NA    NA    NA    NA
    ##  8 US1NYAB0001 2007  11    08       NA    NA    NA    NA    NA
    ##  9 US1NYAB0001 2007  11    09       NA    NA    NA    NA    NA
    ## 10 US1NYAB0001 2007  11    10       NA    NA    NA    NA    NA
    ## # ... with 2,595,166 more rows
…
