p8105_hw3_sal2222
…
data("brfss_smart2010")

brfss <- brfss_smart2010 %>% 
  janitor::clean_names() %>%
  filter(topic == "Overall Health") %>%
  select(-c(class, topic, question, sample_size, confidence_limit_low:geo_location)) %>% 
  spread(key = response, value = data_value) %>% 
  janitor::clean_names() %>% 
  rename(state = locationabbr, county = locationdesc) %>% 
  separate(county, into = c("remove", "county"), sep = "- ") %>%
  select(year, state, county, poor, fair, good, very_good, excellent)
  
brfss

## # A tibble: 2,125 x 8
##     year state county                  poor  fair  good very_good excellent
##    <int> <chr> <chr>                  <dbl> <dbl> <dbl>     <dbl>     <dbl>
##  1  2002 AK    Anchorage Municipality   5.9   8.6  23.8      33.7      27.9
##  2  2002 AL    Jefferson County         5.9  12.1  32.7      30.9      18.5
##  3  2002 AR    Pulaski County           4.2  12.5  29.9      29.3      24.1
##  4  2002 AZ    Maricopa County          4.6  10.3  26.9      36.6      21.6
##  5  2002 AZ    Pima County              3.9   7.5  31.9      30.1      26.6
##  6  2002 CA    Los Angeles County       4.5  14.3  28.7      29.8      22.7
##  7  2002 CO    Adams County             4.2  14.4  29        31.2      21.2
##  8  2002 CO    Arapahoe County          2.1   8    29.3      35.2      25.5
##  9  2002 CO    Denver County            3    11.1  36.6      27.1      22.2
## 10  2002 CO    Jefferson County         2.4  11.4  26.3      36.6      23.4
## # ... with 2,115 more rows
…
The five-panel plot above displays the average proportion in each response category in the BRFSS Overall Health topic, averaged across county-level regions in each state, with a loess smoothed conditional mean curve and 95% confidence level. We see the distribution of state-level averages over time from 2002 to 2008. Very good makes up the highest proportion of responses, followed by good, excellent, fair, and lastly poor. For the most part, the trend of responses remained consistent over time. The proportion of very good responses increases slightly, and excellent responses decrease slightly over this period.

Problem 2: Instacart

data("instacart")
instacart

## # A tibble: 1,384,617 x 15
##    order_id product_id add_to_cart_ord~ reordered user_id eval_set
##       <int>      <int>            <int>     <int>   <int> <chr>   
##  1        1      49302                1         1  112108 train   
##  2        1      11109                2         1  112108 train   
##  3        1      10246                3         0  112108 train   
##  4        1      49683                4         0  112108 train   
##  5        1      43633                5         1  112108 train   
##  6        1      13176                6         0  112108 train   
##  7        1      47209                7         0  112108 train   
##  8        1      22035                8         1  112108 train   
##  9       36      39612                1         0   79431 train   
## 10       36      19660                2         1   79431 train   
## # ... with 1,384,607 more rows, and 9 more variables: order_number <int>,
## #   order_dow <int>, order_hour_of_day <int>,
## #   days_since_prior_order <int>, product_name <chr>, aisle_id <int>,
## #   department_id <int>, aisle <chr>, department <chr>
…
